<?xml version="1.0" encoding="utf-8"?>
<!-- Generator: Adobe Illustrator 19.0.0, SVG Export Plug-In . SVG Version: 6.00 Build 0)  -->
<svg version="1.1" id="Layer_1" xmlns="http://www.w3.org/2000/svg" xmlns:xlink="http://www.w3.org/1999/xlink" x="0px" y="0px"
	 viewBox="-93 31 512 640" style="enable-background:new -93 31 512 640;" xml:space="preserve">
<style type="text/css">
	.st0{fill:#FFFFFF;}
</style>
<g>
	<path class="st0" d="M359.6,180.5H203.1c-0.9-4.5-2.7-8.7-5-12.5l85.6-88.2c3.2,1.5,6.7,2.4,10.4,2.4c13.6,0,24.6-11,24.6-24.6
		S307.7,33,294.1,33s-24.6,11-24.6,24.6c0,3.8,1,7.4,2.5,10.7l-84.9,87.5c-6.8-5-15.1-8-24.1-8s-17.3,3-24.1,8l-52.2-54.6
		c1.6-3.3,2.6-6.9,2.6-10.8c0-13.6-11-24.6-24.6-24.6s-24.6,11-24.6,24.6s11,24.6,24.6,24.6c3.7,0,7.2-0.9,10.3-2.3l52.9,55.3
		c-2.3,3.9-4.1,8-5,12.6H-33.6c-31.7-0.1-57.4,25.6-57.4,57.2v245.8c0,31.7,25.7,57.4,57.4,57.4h393.3c31.6,0,57.4-25.7,57.4-57.4
		V237.8C417,206.2,391.3,180.5,359.6,180.5z M294.1,49.4c4.5,0,8.2,3.7,8.2,8.2s-3.7,8.2-8.2,8.2s-8.2-3.7-8.2-8.2
		S289.6,49.4,294.1,49.4z M56.5,90.4c0-4.5,3.7-8.2,8.2-8.2s8.2,3.7,8.2,8.2s-3.7,8.2-8.2,8.2C60.2,98.5,56.5,94.9,56.5,90.4z
		 M163,164.1c10.7,0,19.7,6.9,23.1,16.4H140C143.3,171,152.3,164.1,163,164.1z M400.6,483.6c0,22.6-18.4,41-41,41H-33.6
		c-22.6,0-41-18.4-41-41V237.8c0-22.6,18.4-41,41-41h393.3c22.6,0,41,18.4,41,41L400.6,483.6L400.6,483.6z"/>
	<path class="st0" d="M277.7,221.5H-25.5c-13.5,0-24.5,11-24.5,24.5v229.4C-50,489-39,500-25.5,500h303.2c13.6,0,24.6-11,24.6-24.6
		V246C302.3,232.5,291.3,221.5,277.7,221.5z M285.9,475.5c0,4.5-3.7,8.2-8.2,8.2H-25.5c-4.5,0-8.2-3.7-8.2-8.2V246
		c0-4.5,3.7-8.2,8.2-8.2h303.2c4.5,0,8.2,3.7,8.2,8.2L285.9,475.5L285.9,475.5z"/>
	<path class="st0" d="M351.5,221.5c-18.1,0-32.8,14.7-32.8,32.8s14.7,32.8,32.8,32.8c18.1,0,32.8-14.7,32.8-32.8
		C384.2,236.2,369.5,221.5,351.5,221.5z M351.5,270.6c-9,0-16.4-7.3-16.4-16.4c0-9,7.3-16.4,16.4-16.4c9,0,16.4,7.3,16.4,16.4
		C367.8,263.3,360.5,270.6,351.5,270.6z"/>
	<path class="st0" d="M351.5,303.4c-18.1,0-32.8,14.7-32.8,32.8c0,18.1,14.7,32.8,32.8,32.8c18.1,0,32.8-14.7,32.8-32.8
		C384.2,318.1,369.5,303.4,351.5,303.4z M351.5,352.5c-9,0-16.4-7.3-16.4-16.4c0-9,7.3-16.4,16.4-16.4c9,0,16.4,7.3,16.4,16.4
		C367.8,345.2,360.5,352.5,351.5,352.5z"/>
	<path class="st0" d="M318.7,483.6h65.5v-98.3h-65.5V483.6z M335.1,401.7h32.8v65.5h-32.8V401.7z"/>
</g>
</svg>
